%YAML 1.1
%TAG !u! tag:unity3d.com,2011:
--- !u!1 &4249429186402541760
GameObject:
  m_ObjectHideFlags: 0
  m_CorrespondingSourceObject: {fileID: 0}
  m_PrefabInstance: {fileID: 0}
  m_PrefabAsset: {fileID: 0}
  serializedVersion: 6
  m_Component:
  - component: {fileID: 4801838090061007588}
  m_Layer: 0
  m_Name: PrefabWall005Preview
  m_TagString: Untagged
  m_Icon: {fileID: 0}
  m_NavMeshLayer: 0
  m_StaticEditorFlags: 0
  m_IsActive: 1
--- !u!4 &4801838090061007588
Transform:
  m_ObjectHideFlags: 0
  m_CorrespondingSourceObject: {fileID: 0}
  m_PrefabInstance: {fileID: 0}
  m_PrefabAsset: {fileID: 0}
  m_GameObject: {fileID: 4249429186402541760}
  m_LocalRotation: {x: 0, y: 0, z: 0, w: 1}
  m_LocalPosition: {x: -8.13, y: -0.18, z: 11.27}
  m_LocalScale: {x: 1, y: 1, z: 1}
  m_Children:
  - {fileID: 642607926659965777}
  - {fileID: 8939467382579832891}
  m_Father: {fileID: 0}
  m_RootOrder: 0
  m_LocalEulerAnglesHint: {x: 0, y: 0, z: 0}
--- !u!1001 &3440571449524752757
PrefabInstance:
  m_ObjectHideFlags: 0
  serializedVersion: 2
  m_Modification:
    m_TransformParent: {fileID: 4801838090061007588}
    m_Modifications:
    - target: {fileID: 6030323997283629390, guid: d29ea25f04ece2b4a9b1d740d637b1c4,
        type: 3}
      propertyPath: m_LocalPosition.x
      value: -0
      objectReference: {fileID: 0}
    - target: {fileID: 6030323997283629390, guid: d29ea25f04ece2b4a9b1d740d637b1c4,
        type: 3}
      propertyPath: m_LocalPosition.y
      value: 0
      objectReference: {fileID: 0}
    - target: {fileID: 6030323997283629390, guid: d29ea25f04ece2b4a9b1d740d637b1c4,
        type: 3}
      propertyPath: m_LocalPosition.z
      value: 0
      objectReference: {fileID: 0}
    - target: {fileID: 6030323997283629390, guid: d29ea25f04ece2b4a9b1d740d637b1c4,
        type: 3}
      propertyPath: m_LocalRotation.x
      value: 0
      objectReference: {fileID: 0}
    - target: {fileID: 6030323997283629390, guid: d29ea25f04ece2b4a9b1d740d637b1c4,
        type: 3}
      propertyPath: m_LocalRotation.y
      value: 1
      objectReference: {fileID: 0}
    - target: {fileID: 6030323997283629390, guid: d29ea25f04ece2b4a9b1d740d637b1c4,
        type: 3}
      propertyPath: m_LocalRotation.z
      value: 0
      objectReference: {fileID: 0}
    - target: {fileID: 6030323997283629390, guid: d29ea25f04ece2b4a9b1d740d637b1c4,
        type: 3}
      propertyPath: m_LocalRotation.w
      value: 0
      objectReference: {fileID: 0}
    - target: {fileID: 6030323997283629390, guid: d29ea25f04ece2b4a9b1d740d637b1c4,
        type: 3}
      propertyPath: m_RootOrder
      value: 1
      objectReference: {fileID: 0}
    - target: {fileID: 6030323997283629390, guid: d29ea25f04ece2b4a9b1d740d637b1c4,
        type: 3}
      propertyPath: m_LocalEulerAnglesHint.x
      value: 0
      objectReference: {fileID: 0}
    - target: {fileID: 6030323997283629390, guid: d29ea25f04ece2b4a9b1d740d637b1c4,
        type: 3}
      propertyPath: m_LocalEulerAnglesHint.y
      value: 180
      objectReference: {fileID: 0}
    - target: {fileID: 6030323997283629390, guid: d29ea25f04ece2b4a9b1d740d637b1c4,
        type: 3}
      propertyPath: m_LocalEulerAnglesHint.z
      value: 0
      objectReference: {fileID: 0}
    - target: {fileID: 7344062991442922333, guid: d29ea25f04ece2b4a9b1d740d637b1c4,
        type: 3}
      propertyPath: m_Name
      value: Mur_005 (1)
      objectReference: {fileID: 0}
    - target: {fileID: 9067870778281590657, guid: d29ea25f04ece2b4a9b1d740d637b1c4,
        type: 3}
      propertyPath: m_Materials.Array.data[0]
      value: 
      objectReference: {fileID: 2100000, guid: 51f543c0f09c69b4782c9f3ea3e2b078, type: 2}
    m_RemovedComponents: []
  m_SourcePrefab: {fileID: 100100000, guid: d29ea25f04ece2b4a9b1d740d637b1c4, type: 3}
--- !u!4 &8939467382579832891 stripped
Transform:
  m_CorrespondingSourceObject: {fileID: 6030323997283629390, guid: d29ea25f04ece2b4a9b1d740d637b1c4,
    type: 3}
  m_PrefabInstance: {fileID: 3440571449524752757}
  m_PrefabAsset: {fileID: 0}
--- !u!1001 &6582858821883943455
PrefabInstance:
  m_ObjectHideFlags: 0
  serializedVersion: 2
  m_Modification:
    m_TransformParent: {fileID: 4801838090061007588}
    m_Modifications:
    - target: {fileID: 6030323997283629390, guid: d29ea25f04ece2b4a9b1d740d637b1c4,
        type: 3}
      propertyPath: m_LocalPosition.x
      value: -0
      objectReference: {fileID: 0}
    - target: {fileID: 6030323997283629390, guid: d29ea25f04ece2b4a9b1d740d637b1c4,
        type: 3}
      propertyPath: m_LocalPosition.y
      value: 0
      objectReference: {fileID: 0}
    - target: {fileID: 6030323997283629390, guid: d29ea25f04ece2b4a9b1d740d637b1c4,
        type: 3}
      propertyPath: m_LocalPosition.z
      value: 0
      objectReference: {fileID: 0}
    - target: {fileID: 6030323997283629390, guid: d29ea25f04ece2b4a9b1d740d637b1c4,
        type: 3}
      propertyPath: m_LocalRotation.x
      value: 0
      objectReference: {fileID: 0}
    - target: {fileID: 6030323997283629390, guid: d29ea25f04ece2b4a9b1d740d637b1c4,
        type: 3}
      propertyPath: m_LocalRotation.y
      value: -0
      objectReference: {fileID: 0}
    - target: {fileID: 6030323997283629390, guid: d29ea25f04ece2b4a9b1d740d637b1c4,
        type: 3}
      propertyPath: m_LocalRotation.z
      value: -0
      objectReference: {fileID: 0}
    - target: {fileID: 6030323997283629390, guid: d29ea25f04ece2b4a9b1d740d637b1c4,
        type: 3}
      propertyPath: m_LocalRotation.w
      value: 1
      objectReference: {fileID: 0}
    - target: {fileID: 6030323997283629390, guid: d29ea25f04ece2b4a9b1d740d637b1c4,
        type: 3}
      propertyPath: m_RootOrder
      value: 0
      objectReference: {fileID: 0}
    - target: {fileID: 6030323997283629390, guid: d29ea25f04ece2b4a9b1d740d637b1c4,
        type: 3}
      propertyPath: m_LocalEulerAnglesHint.x
      value: 0
      objectReference: {fileID: 0}
    - target: {fileID: 6030323997283629390, guid: d29ea25f04ece2b4a9b1d740d637b1c4,
        type: 3}
      propertyPath: m_LocalEulerAnglesHint.y
      value: 0
      objectReference: {fileID: 0}
    - target: {fileID: 6030323997283629390, guid: d29ea25f04ece2b4a9b1d740d637b1c4,
        type: 3}
      propertyPath: m_LocalEulerAnglesHint.z
      value: 0
      objectReference: {fileID: 0}
    - target: {fileID: 7344062991442922333, guid: d29ea25f04ece2b4a9b1d740d637b1c4,
        type: 3}
      propertyPath: m_Name
      value: Mur_005
      objectReference: {fileID: 0}
    - target: {fileID: 9067870778281590657, guid: d29ea25f04ece2b4a9b1d740d637b1c4,
        type: 3}
      propertyPath: m_Materials.Array.data[0]
      value: 
      objectReference: {fileID: 2100000, guid: 51f543c0f09c69b4782c9f3ea3e2b078, type: 2}
    m_RemovedComponents: []
  m_SourcePrefab: {fileID: 100100000, guid: d29ea25f04ece2b4a9b1d740d637b1c4, type: 3}
--- !u!4 &642607926659965777 stripped
Transform:
  m_CorrespondingSourceObject: {fileID: 6030323997283629390, guid: d29ea25f04ece2b4a9b1d740d637b1c4,
    type: 3}
  m_PrefabInstance: {fileID: 6582858821883943455}
  m_PrefabAsset: {fileID: 0}
