%YAML 1.1
%TAG !u! tag:unity3d.com,2011:
--- !u!21 &2100000
Material:
  serializedVersion: 6
  m_ObjectHideFlags: 0
  m_CorrespondingSourceObject: {fileID: 0}
  m_PrefabInstance: {fileID: 0}
  m_PrefabAsset: {fileID: 0}
  m_Name: ToonSimple
  m_Shader: {fileID: -6465566751694194690, guid: 70c09beb5e5db3d42962b128c9378098,
    type: 3}
  m_ShaderKeywords: 
  m_LightmapFlags: 4
  m_EnableInstancingVariants: 0
  m_DoubleSidedGI: 0
  m_CustomRenderQueue: -1
  stringTagMap: {}
  disabledShaderPasses: []
  m_SavedProperties:
    serializedVersion: 3
    m_TexEnvs:
    - Texture2D_97C8EC94:
        m_Texture: {fileID: 0}
        m_Scale: {x: 1, y: 1}
        m_Offset: {x: 0, y: 0}
    - Texture2D_DB342F0C:
        m_Texture: {fileID: 0}
        m_Scale: {x: 1, y: 1}
        m_Offset: {x: 0, y: 0}
    m_Floats:
    - Vector1_1DEF9DF4: 20
    - Vector1_3C3B6420: -1
    - Vector1_9605CCA4: 10
    m_Colors:
    - Color_6A162E48: {r: 1, g: 1, b: 1, a: 0}
    - Color_6C9C775A: {r: 1, g: 1, b: 1, a: 0}
    - Color_9A9462B: {r: 0, g: 0, b: 0, a: 0}
    - Color_D2A04608: {r: 1, g: 1, b: 1, a: 0}
    - Color_D840FCE7: {r: 1, g: 1, b: 1, a: 0}
    - _L1_color: {r: 1, g: 1, b: 1, a: 1}
    - _L1_dir: {r: 0, g: 1, b: 0, a: 0}
    - _L2_color: {r: 0, g: 0, b: 0, a: 0}
    - _L2_dir: {r: 0, g: 0, b: 0, a: 0}
    - _L3_color: {r: 0, g: 0, b: 0, a: 0}
    - _L3_dir: {r: 0, g: 0, b: 0, a: 0}
    - _L4_color: {r: 0, g: 0, b: 0, a: 0}
    - _L4_dir: {r: 0, g: 0, b: 0, a: 0}
    - _L5_color: {r: 0, g: 0, b: 0, a: 0}
    - _L5_dir: {r: 0, g: 0, b: 0, a: 0}
    - _L6_color: {r: 0, g: 0, b: 0, a: 0}
    - _L6_dir: {r: 0, g: 0, b: 0, a: 0}
