%YAML 1.1
%TAG !u! tag:unity3d.com,2011:
--- !u!1001 &6290654391669014497
PrefabInstance:
  m_ObjectHideFlags: 0
  serializedVersion: 2
  m_Modification:
    m_TransformParent: {fileID: 0}
    m_Modifications:
    - target: {fileID: -5178661895559278292, guid: e2ea97a2c66910c4fa73f9c15e5f39da,
        type: 3}
      propertyPath: m_Mesh
      value: 
      objectReference: {fileID: 493382863532629738, guid: db5ac6cf8cb2ea440bcacb0de97c6e7e,
        type: 3}
    - target: {fileID: -4216859302048453862, guid: e2ea97a2c66910c4fa73f9c15e5f39da,
        type: 3}
      propertyPath: m_LocalPosition.x
      value: 0
      objectReference: {fileID: 0}
    - target: {fileID: -4216859302048453862, guid: e2ea97a2c66910c4fa73f9c15e5f39da,
        type: 3}
      propertyPath: m_LocalPosition.y
      value: 0
      objectReference: {fileID: 0}
    - target: {fileID: -4216859302048453862, guid: e2ea97a2c66910c4fa73f9c15e5f39da,
        type: 3}
      propertyPath: m_LocalPosition.z
      value: 0
      objectReference: {fileID: 0}
    - target: {fileID: -4216859302048453862, guid: e2ea97a2c66910c4fa73f9c15e5f39da,
        type: 3}
      propertyPath: m_LocalRotation.x
      value: 0
      objectReference: {fileID: 0}
    - target: {fileID: -4216859302048453862, guid: e2ea97a2c66910c4fa73f9c15e5f39da,
        type: 3}
      propertyPath: m_LocalRotation.y
      value: -0
      objectReference: {fileID: 0}
    - target: {fileID: -4216859302048453862, guid: e2ea97a2c66910c4fa73f9c15e5f39da,
        type: 3}
      propertyPath: m_LocalRotation.z
      value: -0
      objectReference: {fileID: 0}
    - target: {fileID: -4216859302048453862, guid: e2ea97a2c66910c4fa73f9c15e5f39da,
        type: 3}
      propertyPath: m_LocalRotation.w
      value: 1
      objectReference: {fileID: 0}
    - target: {fileID: -4216859302048453862, guid: e2ea97a2c66910c4fa73f9c15e5f39da,
        type: 3}
      propertyPath: m_RootOrder
      value: 0
      objectReference: {fileID: 0}
    - target: {fileID: -4216859302048453862, guid: e2ea97a2c66910c4fa73f9c15e5f39da,
        type: 3}
      propertyPath: m_LocalEulerAnglesHint.x
      value: 0
      objectReference: {fileID: 0}
    - target: {fileID: -4216859302048453862, guid: e2ea97a2c66910c4fa73f9c15e5f39da,
        type: 3}
      propertyPath: m_LocalEulerAnglesHint.y
      value: 0
      objectReference: {fileID: 0}
    - target: {fileID: -4216859302048453862, guid: e2ea97a2c66910c4fa73f9c15e5f39da,
        type: 3}
      propertyPath: m_LocalEulerAnglesHint.z
      value: 0
      objectReference: {fileID: 0}
    - target: {fileID: -1504981713932161579, guid: e2ea97a2c66910c4fa73f9c15e5f39da,
        type: 3}
      propertyPath: m_Materials.Array.data[0]
      value: 
      objectReference: {fileID: 5254365314647461372, guid: db5ac6cf8cb2ea440bcacb0de97c6e7e,
        type: 3}
    - target: {fileID: -1504981713932161579, guid: e2ea97a2c66910c4fa73f9c15e5f39da,
        type: 3}
      propertyPath: m_Materials.Array.data[1]
      value: 
      objectReference: {fileID: -3176187835171777294, guid: db5ac6cf8cb2ea440bcacb0de97c6e7e,
        type: 3}
    - target: {fileID: -927199367670048503, guid: e2ea97a2c66910c4fa73f9c15e5f39da,
        type: 3}
      propertyPath: m_Name
      value: Prefab_Mur_plynthes3_01 Variant
      objectReference: {fileID: 0}
    m_RemovedComponents: []
  m_SourcePrefab: {fileID: 100100000, guid: e2ea97a2c66910c4fa73f9c15e5f39da, type: 3}
