%YAML 1.1
%TAG !u! tag:unity3d.com,2011:
--- !u!1001 &8936366505618361627
PrefabInstance:
  m_ObjectHideFlags: 0
  serializedVersion: 2
  m_Modification:
    m_TransformParent: {fileID: 0}
    m_Modifications:
    - target: {fileID: -5178661895559278292, guid: a0467e774661dbd478a432c4d96e4e2e,
        type: 3}
      propertyPath: m_Mesh
      value: 
      objectReference: {fileID: 831730708579474421, guid: 6235f0570d0148f4198116338c25de73,
        type: 3}
    - target: {fileID: -4216859302048453862, guid: a0467e774661dbd478a432c4d96e4e2e,
        type: 3}
      propertyPath: m_LocalPosition.x
      value: 0
      objectReference: {fileID: 0}
    - target: {fileID: -4216859302048453862, guid: a0467e774661dbd478a432c4d96e4e2e,
        type: 3}
      propertyPath: m_LocalPosition.y
      value: 0
      objectReference: {fileID: 0}
    - target: {fileID: -4216859302048453862, guid: a0467e774661dbd478a432c4d96e4e2e,
        type: 3}
      propertyPath: m_LocalPosition.z
      value: 0
      objectReference: {fileID: 0}
    - target: {fileID: -4216859302048453862, guid: a0467e774661dbd478a432c4d96e4e2e,
        type: 3}
      propertyPath: m_LocalRotation.x
      value: 0
      objectReference: {fileID: 0}
    - target: {fileID: -4216859302048453862, guid: a0467e774661dbd478a432c4d96e4e2e,
        type: 3}
      propertyPath: m_LocalRotation.y
      value: -0
      objectReference: {fileID: 0}
    - target: {fileID: -4216859302048453862, guid: a0467e774661dbd478a432c4d96e4e2e,
        type: 3}
      propertyPath: m_LocalRotation.z
      value: -0
      objectReference: {fileID: 0}
    - target: {fileID: -4216859302048453862, guid: a0467e774661dbd478a432c4d96e4e2e,
        type: 3}
      propertyPath: m_LocalRotation.w
      value: 1
      objectReference: {fileID: 0}
    - target: {fileID: -4216859302048453862, guid: a0467e774661dbd478a432c4d96e4e2e,
        type: 3}
      propertyPath: m_RootOrder
      value: 0
      objectReference: {fileID: 0}
    - target: {fileID: -4216859302048453862, guid: a0467e774661dbd478a432c4d96e4e2e,
        type: 3}
      propertyPath: m_LocalEulerAnglesHint.x
      value: 0
      objectReference: {fileID: 0}
    - target: {fileID: -4216859302048453862, guid: a0467e774661dbd478a432c4d96e4e2e,
        type: 3}
      propertyPath: m_LocalEulerAnglesHint.y
      value: 0
      objectReference: {fileID: 0}
    - target: {fileID: -4216859302048453862, guid: a0467e774661dbd478a432c4d96e4e2e,
        type: 3}
      propertyPath: m_LocalEulerAnglesHint.z
      value: 0
      objectReference: {fileID: 0}
    - target: {fileID: -1504981713932161579, guid: a0467e774661dbd478a432c4d96e4e2e,
        type: 3}
      propertyPath: m_Materials.Array.data[0]
      value: 
      objectReference: {fileID: 1224500518968760032, guid: 6235f0570d0148f4198116338c25de73,
        type: 3}
    - target: {fileID: -1504981713932161579, guid: a0467e774661dbd478a432c4d96e4e2e,
        type: 3}
      propertyPath: m_Materials.Array.data[1]
      value: 
      objectReference: {fileID: 880774007180850119, guid: 6235f0570d0148f4198116338c25de73,
        type: 3}
    - target: {fileID: -927199367670048503, guid: a0467e774661dbd478a432c4d96e4e2e,
        type: 3}
      propertyPath: m_Name
      value: Prefab_Mur_plynthes2_01 Variant
      objectReference: {fileID: 0}
    m_RemovedComponents: []
  m_SourcePrefab: {fileID: 100100000, guid: a0467e774661dbd478a432c4d96e4e2e, type: 3}
