%YAML 1.1
%TAG !u! tag:unity3d.com,2011:
--- !u!1 &6429990886495262340
GameObject:
  m_ObjectHideFlags: 0
  m_CorrespondingSourceObject: {fileID: 0}
  m_PrefabInstance: {fileID: 0}
  m_PrefabAsset: {fileID: 0}
  serializedVersion: 6
  m_Component:
  - component: {fileID: 2405315539761708192}
  m_Layer: 0
  m_Name: PrefabWall003Preview
  m_TagString: Untagged
  m_Icon: {fileID: 0}
  m_NavMeshLayer: 0
  m_StaticEditorFlags: 0
  m_IsActive: 1
--- !u!4 &2405315539761708192
Transform:
  m_ObjectHideFlags: 0
  m_CorrespondingSourceObject: {fileID: 0}
  m_PrefabInstance: {fileID: 0}
  m_PrefabAsset: {fileID: 0}
  m_GameObject: {fileID: 6429990886495262340}
  m_LocalRotation: {x: 0, y: 0, z: 0, w: 1}
  m_LocalPosition: {x: -8.13, y: -0.18, z: 6.98}
  m_LocalScale: {x: 1, y: 1, z: 1}
  m_Children:
  - {fileID: 6381290820706340679}
  - {fileID: 6845493382287150529}
  m_Father: {fileID: 0}
  m_RootOrder: 0
  m_LocalEulerAnglesHint: {x: 0, y: 0, z: 0}
--- !u!1001 &5288194720771111850
PrefabInstance:
  m_ObjectHideFlags: 0
  serializedVersion: 2
  m_Modification:
    m_TransformParent: {fileID: 2405315539761708192}
    m_Modifications:
    - target: {fileID: 1613241817705952875, guid: a8e5ea758a942f9469833aed6b985c28,
        type: 3}
      propertyPath: m_LocalPosition.x
      value: -0
      objectReference: {fileID: 0}
    - target: {fileID: 1613241817705952875, guid: a8e5ea758a942f9469833aed6b985c28,
        type: 3}
      propertyPath: m_LocalPosition.y
      value: 0
      objectReference: {fileID: 0}
    - target: {fileID: 1613241817705952875, guid: a8e5ea758a942f9469833aed6b985c28,
        type: 3}
      propertyPath: m_LocalPosition.z
      value: 0
      objectReference: {fileID: 0}
    - target: {fileID: 1613241817705952875, guid: a8e5ea758a942f9469833aed6b985c28,
        type: 3}
      propertyPath: m_LocalRotation.x
      value: 0
      objectReference: {fileID: 0}
    - target: {fileID: 1613241817705952875, guid: a8e5ea758a942f9469833aed6b985c28,
        type: 3}
      propertyPath: m_LocalRotation.y
      value: 1
      objectReference: {fileID: 0}
    - target: {fileID: 1613241817705952875, guid: a8e5ea758a942f9469833aed6b985c28,
        type: 3}
      propertyPath: m_LocalRotation.z
      value: 0
      objectReference: {fileID: 0}
    - target: {fileID: 1613241817705952875, guid: a8e5ea758a942f9469833aed6b985c28,
        type: 3}
      propertyPath: m_LocalRotation.w
      value: 0
      objectReference: {fileID: 0}
    - target: {fileID: 1613241817705952875, guid: a8e5ea758a942f9469833aed6b985c28,
        type: 3}
      propertyPath: m_RootOrder
      value: 1
      objectReference: {fileID: 0}
    - target: {fileID: 1613241817705952875, guid: a8e5ea758a942f9469833aed6b985c28,
        type: 3}
      propertyPath: m_LocalEulerAnglesHint.x
      value: 0
      objectReference: {fileID: 0}
    - target: {fileID: 1613241817705952875, guid: a8e5ea758a942f9469833aed6b985c28,
        type: 3}
      propertyPath: m_LocalEulerAnglesHint.y
      value: 180
      objectReference: {fileID: 0}
    - target: {fileID: 1613241817705952875, guid: a8e5ea758a942f9469833aed6b985c28,
        type: 3}
      propertyPath: m_LocalEulerAnglesHint.z
      value: 0
      objectReference: {fileID: 0}
    - target: {fileID: 2321670728853603448, guid: a8e5ea758a942f9469833aed6b985c28,
        type: 3}
      propertyPath: m_Name
      value: Mur_003 (1)
      objectReference: {fileID: 0}
    - target: {fileID: 4036611984684216484, guid: a8e5ea758a942f9469833aed6b985c28,
        type: 3}
      propertyPath: m_Materials.Array.data[0]
      value: 
      objectReference: {fileID: 2100000, guid: 51f543c0f09c69b4782c9f3ea3e2b078, type: 2}
    m_RemovedComponents: []
  m_SourcePrefab: {fileID: 100100000, guid: a8e5ea758a942f9469833aed6b985c28, type: 3}
--- !u!4 &6845493382287150529 stripped
Transform:
  m_CorrespondingSourceObject: {fileID: 1613241817705952875, guid: a8e5ea758a942f9469833aed6b985c28,
    type: 3}
  m_PrefabInstance: {fileID: 5288194720771111850}
  m_PrefabAsset: {fileID: 0}
--- !u!1001 &5687347950129428780
PrefabInstance:
  m_ObjectHideFlags: 0
  serializedVersion: 2
  m_Modification:
    m_TransformParent: {fileID: 2405315539761708192}
    m_Modifications:
    - target: {fileID: 1613241817705952875, guid: a8e5ea758a942f9469833aed6b985c28,
        type: 3}
      propertyPath: m_LocalPosition.x
      value: -0
      objectReference: {fileID: 0}
    - target: {fileID: 1613241817705952875, guid: a8e5ea758a942f9469833aed6b985c28,
        type: 3}
      propertyPath: m_LocalPosition.y
      value: 0
      objectReference: {fileID: 0}
    - target: {fileID: 1613241817705952875, guid: a8e5ea758a942f9469833aed6b985c28,
        type: 3}
      propertyPath: m_LocalPosition.z
      value: 0
      objectReference: {fileID: 0}
    - target: {fileID: 1613241817705952875, guid: a8e5ea758a942f9469833aed6b985c28,
        type: 3}
      propertyPath: m_LocalRotation.x
      value: 0
      objectReference: {fileID: 0}
    - target: {fileID: 1613241817705952875, guid: a8e5ea758a942f9469833aed6b985c28,
        type: 3}
      propertyPath: m_LocalRotation.y
      value: -0
      objectReference: {fileID: 0}
    - target: {fileID: 1613241817705952875, guid: a8e5ea758a942f9469833aed6b985c28,
        type: 3}
      propertyPath: m_LocalRotation.z
      value: -0
      objectReference: {fileID: 0}
    - target: {fileID: 1613241817705952875, guid: a8e5ea758a942f9469833aed6b985c28,
        type: 3}
      propertyPath: m_LocalRotation.w
      value: 1
      objectReference: {fileID: 0}
    - target: {fileID: 1613241817705952875, guid: a8e5ea758a942f9469833aed6b985c28,
        type: 3}
      propertyPath: m_RootOrder
      value: 0
      objectReference: {fileID: 0}
    - target: {fileID: 1613241817705952875, guid: a8e5ea758a942f9469833aed6b985c28,
        type: 3}
      propertyPath: m_LocalEulerAnglesHint.x
      value: 0
      objectReference: {fileID: 0}
    - target: {fileID: 1613241817705952875, guid: a8e5ea758a942f9469833aed6b985c28,
        type: 3}
      propertyPath: m_LocalEulerAnglesHint.y
      value: 0
      objectReference: {fileID: 0}
    - target: {fileID: 1613241817705952875, guid: a8e5ea758a942f9469833aed6b985c28,
        type: 3}
      propertyPath: m_LocalEulerAnglesHint.z
      value: 0
      objectReference: {fileID: 0}
    - target: {fileID: 2321670728853603448, guid: a8e5ea758a942f9469833aed6b985c28,
        type: 3}
      propertyPath: m_Name
      value: Mur_003
      objectReference: {fileID: 0}
    - target: {fileID: 4036611984684216484, guid: a8e5ea758a942f9469833aed6b985c28,
        type: 3}
      propertyPath: m_Materials.Array.data[0]
      value: 
      objectReference: {fileID: 2100000, guid: 51f543c0f09c69b4782c9f3ea3e2b078, type: 2}
    m_RemovedComponents: []
  m_SourcePrefab: {fileID: 100100000, guid: a8e5ea758a942f9469833aed6b985c28, type: 3}
--- !u!4 &6381290820706340679 stripped
Transform:
  m_CorrespondingSourceObject: {fileID: 1613241817705952875, guid: a8e5ea758a942f9469833aed6b985c28,
    type: 3}
  m_PrefabInstance: {fileID: 5687347950129428780}
  m_PrefabAsset: {fileID: 0}
