%YAML 1.1
%TAG !u! tag:unity3d.com,2011:
--- !u!114 &11400000
MonoBehaviour:
  m_ObjectHideFlags: 0
  m_CorrespondingSourceObject: {fileID: 0}
  m_PrefabInstance: {fileID: 0}
  m_PrefabAsset: {fileID: 0}
  m_GameObject: {fileID: 0}
  m_Enabled: 1
  m_EditorHideFlags: 0
  m_Script: {fileID: 11500000, guid: b00f367ee721cba49ac2f683138acd7d, type: 3}
  m_Name: Filler19
  m_EditorClassIdentifier: 
  titre: Filler 19
  auteur: ERIC
  Annee: 2020
  description: SON PLUS BEAU PAINT
  technique: 
  lieuConservation: 
  idSalle: 0
  courantArtTableau: 0
  periode: 0
  ambiance: 0
  elements: 17
  style: 3
  Cadre: {fileID: -927199367670048503, guid: b685706cfb8914a438efc29bb6b58e47, type: 3}
  imageOeuvre: {fileID: 21300000, guid: a18cfd75f3e3e3e40b7274ef3ebc3773, type: 3}
  MatTableau: {fileID: 2100000, guid: 59c10dcdf387541428bed1ea1eb2496a, type: 2}
  MatCadre: {fileID: 2100000, guid: 06252234be27d3b4da7e3466be6af6eb, type: 2}
  LargeurTableau: 1.28
  HauteurTableau: 0.72
  ProfondeurTableau: 0
  OriginalValue: 1
  TransformedValue: 0
  MouvementCoef: 1
  PeriodCoef: 1
  StyleCoef: 1
  AmbianceCoef: 1
  ElementsCoef: 1
  CoefGlobal: 1
