%YAML 1.1
%TAG !u! tag:unity3d.com,2011:
--- !u!21 &2100000
Material:
  serializedVersion: 6
  m_ObjectHideFlags: 0
  m_CorrespondingSourceObject: {fileID: 0}
  m_PrefabInstance: {fileID: 0}
  m_PrefabAsset: {fileID: 0}
  m_Name: Distortion
  m_Shader: {fileID: -6465566751694194690, guid: 489dfc0e0ee4a1844b0c0771065d644f,
    type: 3}
  m_ShaderKeywords: 
  m_LightmapFlags: 4
  m_EnableInstancingVariants: 0
  m_DoubleSidedGI: 0
  m_CustomRenderQueue: -1
  stringTagMap: {}
  disabledShaderPasses: []
  m_SavedProperties:
    serializedVersion: 3
    m_TexEnvs:
    - Texture2D_3AB372AD:
        m_Texture: {fileID: 2800000, guid: 4dbd483a8ad009f4bacc8eb40d48ce57, type: 3}
        m_Scale: {x: 1, y: 1}
        m_Offset: {x: 0, y: 0}
    - Texture2D_52A7706C:
        m_Texture: {fileID: 2800000, guid: 21655350bcc9f0e47bcbb157a338f894, type: 3}
        m_Scale: {x: 1, y: 1}
        m_Offset: {x: 0, y: 0}
    - _NormalFromTexture_7D6385F5_Texture_0:
        m_Texture: {fileID: 2800000, guid: 21655350bcc9f0e47bcbb157a338f894, type: 3}
        m_Scale: {x: 1, y: 1}
        m_Offset: {x: 0, y: 0}
    - _SampleTexture2D_883B55DF_Texture_1:
        m_Texture: {fileID: 2800000, guid: 4dbd483a8ad009f4bacc8eb40d48ce57, type: 3}
        m_Scale: {x: 1, y: 1}
        m_Offset: {x: 0, y: 0}
    - _SampleTexture2D_A9ABC924_Texture_1:
        m_Texture: {fileID: 2800000, guid: 21655350bcc9f0e47bcbb157a338f894, type: 3}
        m_Scale: {x: 1, y: 1}
        m_Offset: {x: 0, y: 0}
    m_Floats:
    - Vector1_197C8084: 8
    - Vector1_5CFAA014: 0.1
    - Vector1_DB6293F: 23.16
    m_Colors:
    - Color_A28F8A0B: {r: 0, g: 0.34183836, b: 1, a: 1}
    - Vector2_56DD3998: {r: 0.1, g: 0, b: 0, a: 0}
    - Vector2_584B85B: {r: 5, g: 5, b: 0, a: 0}
    - Vector2_79582C83: {r: 10, g: 10, b: 0, a: 0}
    - Vector2_F587DCF9: {r: 0.1, g: 0.1, b: 0, a: 0}
