%YAML 1.1
%TAG !u! tag:unity3d.com,2011:
--- !u!1 &8761787425619530001
GameObject:
  m_ObjectHideFlags: 0
  m_CorrespondingSourceObject: {fileID: 0}
  m_PrefabInstance: {fileID: 0}
  m_PrefabAsset: {fileID: 0}
  serializedVersion: 6
  m_Component:
  - component: {fileID: 8045826656390296134}
  - component: {fileID: 6462541013130530373}
  - component: {fileID: 3478234760014134852}
  m_Layer: 0
  m_Name: New terrain prefab
  m_TagString: Untagged
  m_Icon: {fileID: 0}
  m_NavMeshLayer: 0
  m_StaticEditorFlags: 0
  m_IsActive: 1
--- !u!4 &8045826656390296134
Transform:
  m_ObjectHideFlags: 0
  m_CorrespondingSourceObject: {fileID: 0}
  m_PrefabInstance: {fileID: 0}
  m_PrefabAsset: {fileID: 0}
  m_GameObject: {fileID: 8761787425619530001}
  m_LocalRotation: {x: 0, y: 0, z: 0, w: 1}
  m_LocalPosition: {x: 11.459354, y: -6.8467684, z: 4.8003426}
  m_LocalScale: {x: 1, y: 1, z: 1}
  m_Children:
  - {fileID: 4576705625279545027}
  m_Father: {fileID: 0}
  m_RootOrder: 0
  m_LocalEulerAnglesHint: {x: 0, y: 0, z: 0}
--- !u!114 &6462541013130530373
MonoBehaviour:
  m_ObjectHideFlags: 0
  m_CorrespondingSourceObject: {fileID: 0}
  m_PrefabInstance: {fileID: 0}
  m_PrefabAsset: {fileID: 0}
  m_GameObject: {fileID: 8761787425619530001}
  m_Enabled: 1
  m_EditorHideFlags: 0
  m_Script: {fileID: 11500000, guid: 7a5ac11cc976e418e8d13136b07e1f52, type: 3}
  m_Name: 
  m_EditorClassIdentifier: 
  m_AgentTypeID: 0
  m_CollectObjects: 2
  m_Size: {x: 10, y: 10, z: 10}
  m_Center: {x: 0, y: 2, z: 0}
  m_LayerMask:
    serializedVersion: 2
    m_Bits: 3383
  m_UseGeometry: 0
  m_DefaultArea: 0
  m_IgnoreNavMeshAgent: 1
  m_IgnoreNavMeshObstacle: 1
  m_OverrideTileSize: 0
  m_TileSize: 256
  m_OverrideVoxelSize: 0
  m_VoxelSize: 0.1
  m_BuildHeightMesh: 0
  m_NavMeshData: {fileID: 23800000, guid: 7637fb4e748b83c4091980c5581a1641, type: 2}
--- !u!114 &3478234760014134852
MonoBehaviour:
  m_ObjectHideFlags: 0
  m_CorrespondingSourceObject: {fileID: 0}
  m_PrefabInstance: {fileID: 0}
  m_PrefabAsset: {fileID: 0}
  m_GameObject: {fileID: 8761787425619530001}
  m_Enabled: 1
  m_EditorHideFlags: 0
  m_Script: {fileID: 11500000, guid: 7a5ac11cc976e418e8d13136b07e1f52, type: 3}
  m_Name: 
  m_EditorClassIdentifier: 
  m_AgentTypeID: 0
  m_CollectObjects: 2
  m_Size: {x: 10, y: 10, z: 10}
  m_Center: {x: 0, y: 2, z: 0}
  m_LayerMask:
    serializedVersion: 2
    m_Bits: 3383
  m_UseGeometry: 0
  m_DefaultArea: 0
  m_IgnoreNavMeshAgent: 1
  m_IgnoreNavMeshObstacle: 1
  m_OverrideTileSize: 0
  m_TileSize: 256
  m_OverrideVoxelSize: 0
  m_VoxelSize: 0.1
  m_BuildHeightMesh: 0
  m_NavMeshData: {fileID: 0}
--- !u!1001 &8861128353538119129
PrefabInstance:
  m_ObjectHideFlags: 0
  serializedVersion: 2
  m_Modification:
    m_TransformParent: {fileID: 8045826656390296134}
    m_Modifications:
    - target: {fileID: -8305453336758170511, guid: bf7512c056eb6c947ae11a37342e4f8e,
        type: 3}
      propertyPath: m_LocalPosition.z
      value: -13.02
      objectReference: {fileID: 0}
    - target: {fileID: -7872725592404293294, guid: bf7512c056eb6c947ae11a37342e4f8e,
        type: 3}
      propertyPath: m_Materials.Array.data[0]
      value: 
      objectReference: {fileID: 2100000, guid: 7e3fc2d9734145f4f9ebb6a2f7be5ea7, type: 2}
    - target: {fileID: -7591824806308581011, guid: bf7512c056eb6c947ae11a37342e4f8e,
        type: 3}
      propertyPath: m_Materials.Array.data[0]
      value: 
      objectReference: {fileID: 2100000, guid: 7e3fc2d9734145f4f9ebb6a2f7be5ea7, type: 2}
    - target: {fileID: -6812756013007140937, guid: bf7512c056eb6c947ae11a37342e4f8e,
        type: 3}
      propertyPath: m_Materials.Array.data[0]
      value: 
      objectReference: {fileID: 2100000, guid: 7e3fc2d9734145f4f9ebb6a2f7be5ea7, type: 2}
    - target: {fileID: -4216859302048453862, guid: bf7512c056eb6c947ae11a37342e4f8e,
        type: 3}
      propertyPath: m_LocalPosition.x
      value: -0.049354553
      objectReference: {fileID: 0}
    - target: {fileID: -4216859302048453862, guid: bf7512c056eb6c947ae11a37342e4f8e,
        type: 3}
      propertyPath: m_LocalPosition.y
      value: 6.8467684
      objectReference: {fileID: 0}
    - target: {fileID: -4216859302048453862, guid: bf7512c056eb6c947ae11a37342e4f8e,
        type: 3}
      propertyPath: m_LocalPosition.z
      value: -8.230343
      objectReference: {fileID: 0}
    - target: {fileID: -4216859302048453862, guid: bf7512c056eb6c947ae11a37342e4f8e,
        type: 3}
      propertyPath: m_LocalRotation.x
      value: -0
      objectReference: {fileID: 0}
    - target: {fileID: -4216859302048453862, guid: bf7512c056eb6c947ae11a37342e4f8e,
        type: 3}
      propertyPath: m_LocalRotation.y
      value: 1
      objectReference: {fileID: 0}
    - target: {fileID: -4216859302048453862, guid: bf7512c056eb6c947ae11a37342e4f8e,
        type: 3}
      propertyPath: m_LocalRotation.z
      value: -0
      objectReference: {fileID: 0}
    - target: {fileID: -4216859302048453862, guid: bf7512c056eb6c947ae11a37342e4f8e,
        type: 3}
      propertyPath: m_LocalRotation.w
      value: 0
      objectReference: {fileID: 0}
    - target: {fileID: -4216859302048453862, guid: bf7512c056eb6c947ae11a37342e4f8e,
        type: 3}
      propertyPath: m_RootOrder
      value: 0
      objectReference: {fileID: 0}
    - target: {fileID: -4216859302048453862, guid: bf7512c056eb6c947ae11a37342e4f8e,
        type: 3}
      propertyPath: m_LocalEulerAnglesHint.x
      value: 0
      objectReference: {fileID: 0}
    - target: {fileID: -4216859302048453862, guid: bf7512c056eb6c947ae11a37342e4f8e,
        type: 3}
      propertyPath: m_LocalEulerAnglesHint.y
      value: 180
      objectReference: {fileID: 0}
    - target: {fileID: -4216859302048453862, guid: bf7512c056eb6c947ae11a37342e4f8e,
        type: 3}
      propertyPath: m_LocalEulerAnglesHint.z
      value: 0
      objectReference: {fileID: 0}
    - target: {fileID: -2367444746183601693, guid: bf7512c056eb6c947ae11a37342e4f8e,
        type: 3}
      propertyPath: m_LocalPosition.z
      value: -1.975
      objectReference: {fileID: 0}
    - target: {fileID: -1185798365858043846, guid: bf7512c056eb6c947ae11a37342e4f8e,
        type: 3}
      propertyPath: m_LocalPosition.z
      value: -1.96
      objectReference: {fileID: 0}
    - target: {fileID: -927199367670048503, guid: bf7512c056eb6c947ae11a37342e4f8e,
        type: 3}
      propertyPath: m_Name
      value: New_LD_Terrain
      objectReference: {fileID: 0}
    - target: {fileID: -839225125143959434, guid: bf7512c056eb6c947ae11a37342e4f8e,
        type: 3}
      propertyPath: m_Materials.Array.data[0]
      value: 
      objectReference: {fileID: 2100000, guid: 7acd5a63f83098043b1ea9fa8ebb4d5e, type: 2}
    - target: {fileID: 616716369310051800, guid: bf7512c056eb6c947ae11a37342e4f8e,
        type: 3}
      propertyPath: m_LocalPosition.x
      value: -0.022
      objectReference: {fileID: 0}
    - target: {fileID: 1450496212876860075, guid: bf7512c056eb6c947ae11a37342e4f8e,
        type: 3}
      propertyPath: m_Materials.Array.data[0]
      value: 
      objectReference: {fileID: 2100000, guid: 326e28a0bec625c458d5555bb2b83269, type: 2}
    m_RemovedComponents: []
  m_SourcePrefab: {fileID: 100100000, guid: bf7512c056eb6c947ae11a37342e4f8e, type: 3}
--- !u!4 &4576705625279545027 stripped
Transform:
  m_CorrespondingSourceObject: {fileID: -4216859302048453862, guid: bf7512c056eb6c947ae11a37342e4f8e,
    type: 3}
  m_PrefabInstance: {fileID: 8861128353538119129}
  m_PrefabAsset: {fileID: 0}
