%YAML 1.1
%TAG !u! tag:unity3d.com,2011:
--- !u!114 &11400000
MonoBehaviour:
  m_ObjectHideFlags: 0
  m_CorrespondingSourceObject: {fileID: 0}
  m_PrefabInstance: {fileID: 0}
  m_PrefabAsset: {fileID: 0}
  m_GameObject: {fileID: 0}
  m_Enabled: 1
  m_EditorHideFlags: 0
  m_Script: {fileID: 11500000, guid: b00f367ee721cba49ac2f683138acd7d, type: 3}
  m_Name: So_AN_The_Dancers_Reward
  m_EditorClassIdentifier: 
  titre: The dancer's reward
  auteur: Aubrey Breadsley
  Annee: 1894
  description: 
  technique: Encre noire et graphite sur papier
  lieuConservation: "Collection priv\xE9e"
  idSalle: 2
  courantArtTableau: 4
  periode: 1
  ambiance: 0
  elements: 3
  style: 0
  Cadre: {fileID: -927199367670048503, guid: eac59f5194c122b4cb10818188bcf028, type: 3}
  imageOeuvre: {fileID: 21300000, guid: 7c66d124181b7914eb673e737ae1295d, type: 3}
  MatTableau: {fileID: 2100000, guid: 857caf1c9dcb285479f63317d9ab36da, type: 2}
  MatCadre: {fileID: 2100000, guid: 1dc6f2864207c694d82458c2d18dce2e, type: 2}
  LargeurTableau: 0.165
  HauteurTableau: 0.23
  ProfondeurTableau: 0.1
  OriginalValue: 1
  TransformedValue: 14
  MouvementCoef: 0.5
  PeriodCoef: 0.5
  StyleCoef: 2
  AmbianceCoef: 2
  ElementsCoef: 2
  CoefGlobal: 1.4
