%YAML 1.1
%TAG !u! tag:unity3d.com,2011:
--- !u!114 &11400000
MonoBehaviour:
  m_ObjectHideFlags: 0
  m_CorrespondingSourceObject: {fileID: 0}
  m_PrefabInstance: {fileID: 0}
  m_PrefabAsset: {fileID: 0}
  m_GameObject: {fileID: 0}
  m_Enabled: 1
  m_EditorHideFlags: 0
  m_Script: {fileID: 11500000, guid: b00f367ee721cba49ac2f683138acd7d, type: 3}
  m_Name: So_SU_Persistence_de_la_memoire
  m_EditorClassIdentifier: 
  titre: "Persistence de la m\xE9moire"
  auteur: Salvador Dali
  Annee: 1931
  description: 
  technique: Huile sur toile
  lieuConservation: Museum of Modern Art (New-York, USA)
  idSalle: 1
  courantArtTableau: 3
  periode: 0
  ambiance: 0
  elements: 22
  style: 1
  Cadre: {fileID: -927199367670048503, guid: eac59f5194c122b4cb10818188bcf028, type: 3}
  imageOeuvre: {fileID: 21300000, guid: f2bad092ab1dd9941be8528e0991bbf0, type: 3}
  MatTableau: {fileID: 2100000, guid: df438f626f229c04b93ed547d05ec98e, type: 2}
  MatCadre: {fileID: 2100000, guid: 1dc6f2864207c694d82458c2d18dce2e, type: 2}
  LargeurTableau: 0.33
  HauteurTableau: 0.24
  ProfondeurTableau: 0.1
  OriginalValue: 1
  TransformedValue: 16.333334
  MouvementCoef: 0.5
  PeriodCoef: 0
  StyleCoef: 1
  AmbianceCoef: 2
  ElementsCoef: 2
  CoefGlobal: 1.6333333
