%YAML 1.1
%TAG !u! tag:unity3d.com,2011:
--- !u!114 &11400000
MonoBehaviour:
  m_ObjectHideFlags: 0
  m_CorrespondingSourceObject: {fileID: 0}
  m_PrefabInstance: {fileID: 0}
  m_PrefabAsset: {fileID: 0}
  m_GameObject: {fileID: 0}
  m_Enabled: 1
  m_EditorHideFlags: 0
  m_Script: {fileID: 11500000, guid: b00f367ee721cba49ac2f683138acd7d, type: 3}
  m_Name: So_IM_nuit_etoilee
  m_EditorClassIdentifier: 
  titre: "Nuit \xE9toil\xE9e"
  auteur: Vincent Van Gogh
  Annee: 1889
  description: '[WIP]'
  technique: "Peinture \xE0 l'huile"
  lieuConservation: "Mus\xE9e d'Art Moderne (New-York, USA)"
  idSalle: 1
  courantArtTableau: 1
  periode: 1
  ambiance: 0
  elements: 13
  style: 1
  Cadre: {fileID: -927199367670048503, guid: eac59f5194c122b4cb10818188bcf028, type: 3}
  imageOeuvre: {fileID: 21300000, guid: d840c44c31860854b9c673b019c5a716, type: 3}
  MatTableau: {fileID: 2100000, guid: 4d1731b373023324bb0bfc7943a310da, type: 2}
  MatCadre: {fileID: 2100000, guid: 1dc6f2864207c694d82458c2d18dce2e, type: 2}
  LargeurTableau: 0.92
  HauteurTableau: 0.73
  ProfondeurTableau: 0.1
  OriginalValue: 1
  TransformedValue: 10
  MouvementCoef: 1
  PeriodCoef: 1
  StyleCoef: 1
  AmbianceCoef: 2
  ElementsCoef: 1
  CoefGlobal: 1
