%YAML 1.1
%TAG !u! tag:unity3d.com,2011:
--- !u!114 &11400000
MonoBehaviour:
  m_ObjectHideFlags: 0
  m_CorrespondingSourceObject: {fileID: 0}
  m_PrefabInstance: {fileID: 0}
  m_PrefabAsset: {fileID: 0}
  m_GameObject: {fileID: 0}
  m_Enabled: 1
  m_EditorHideFlags: 0
  m_Script: {fileID: 11500000, guid: b00f367ee721cba49ac2f683138acd7d, type: 3}
  m_Name: So_IM_lilas_maurecourt
  m_EditorClassIdentifier: 
  titre: Sous la lilas de Maurecourt
  auteur: Berthe Morisot
  Annee: 1874
  description: '[WIP]'
  technique: "Peinture \xE0 l'huile"
  lieuConservation: "Collection priv\xE9e"
  idSalle: 1
  courantArtTableau: 1
  periode: 1
  ambiance: 0
  elements: 7
  style: 1
  Cadre: {fileID: -927199367670048503, guid: eac59f5194c122b4cb10818188bcf028, type: 3}
  imageOeuvre: {fileID: 21300000, guid: 8620ac5b852e4b443b2077486fe40f9a, type: 3}
  MatTableau: {fileID: 2100000, guid: 9b6f3a813e9f8134383e0e8dda29a9ce, type: 2}
  MatCadre: {fileID: 2100000, guid: 1dc6f2864207c694d82458c2d18dce2e, type: 2}
  LargeurTableau: 0.61
  HauteurTableau: 0.5
  ProfondeurTableau: 0.1
  OriginalValue: 1
  TransformedValue: 19.5
  MouvementCoef: 1.5
  PeriodCoef: 1.6666666
  StyleCoef: 1.6666666
  AmbianceCoef: 2
  ElementsCoef: 1.5
  CoefGlobal: 1.95
