%YAML 1.1
%TAG !u! tag:unity3d.com,2011:
--- !u!114 &11400000
MonoBehaviour:
  m_ObjectHideFlags: 0
  m_CorrespondingSourceObject: {fileID: 0}
  m_PrefabInstance: {fileID: 0}
  m_PrefabAsset: {fileID: 0}
  m_GameObject: {fileID: 0}
  m_Enabled: 1
  m_EditorHideFlags: 0
  m_Script: {fileID: 11500000, guid: 41358735d93544749af23d081619911b, type: 3}
  m_Name: Quete 3
  m_EditorClassIdentifier: 
  description: "Qu\xEAte 2"
  reputationGoal: 700
  playerCanChoose: 0
  numberToPick: 1
  paintings:
  - {fileID: 11400000, guid: 88b62d5bc5639c94a9dd22a58d81a37f, type: 2}
  unlockRoom: 1
  roomID: 5
