%YAML 1.1
%TAG !u! tag:unity3d.com,2011:
--- !u!114 &11400000
MonoBehaviour:
  m_ObjectHideFlags: 0
  m_CorrespondingSourceObject: {fileID: 0}
  m_PrefabInstance: {fileID: 0}
  m_PrefabAsset: {fileID: 0}
  m_GameObject: {fileID: 0}
  m_Enabled: 1
  m_EditorHideFlags: 0
  m_Script: {fileID: 11500000, guid: 41358735d93544749af23d081619911b, type: 3}
  m_Name: "Set de d\xE9part 1"
  m_EditorClassIdentifier: 
  description: "Set de d\xE9part"
  reputationGoal: 0
  playerCanChoose: 1
  numberToPick: 3
  paintings:
  - {fileID: 11400000, guid: 5db8eac0e22f0ef4c903e798b4b0526b, type: 2}
  - {fileID: 11400000, guid: 0f682e37288e95641b11204ee5fd4111, type: 2}
  - {fileID: 11400000, guid: ad71ccbe4c69993439dd0be775fd9cb2, type: 2}
  unlockRoom: 0
  roomID: 0
