%YAML 1.1
%TAG !u! tag:unity3d.com,2011:
--- !u!114 &11400000
MonoBehaviour:
  m_ObjectHideFlags: 0
  m_CorrespondingSourceObject: {fileID: 0}
  m_PrefabInstance: {fileID: 0}
  m_PrefabAsset: {fileID: 0}
  m_GameObject: {fileID: 0}
  m_Enabled: 1
  m_EditorHideFlags: 0
  m_Script: {fileID: 11500000, guid: b00f367ee721cba49ac2f683138acd7d, type: 3}
  m_Name: So_CU_contrastes_simultanes
  m_EditorClassIdentifier: 
  titre: "Contrastes simultan\xE9s"
  auteur: Sonia Delaunay
  Annee: 1913
  description: 
  technique: "Peinture \xE0 l'huile"
  lieuConservation: Museo Nacional Thyssen-Bornemisza (Madrid, Espagne)
  idSalle: 1
  courantArtTableau: 2
  periode: 2
  ambiance: 0
  elements: 5
  style: 7
  Cadre: {fileID: -927199367670048503, guid: eac59f5194c122b4cb10818188bcf028, type: 3}
  imageOeuvre: {fileID: 21300000, guid: 0a848f90c9a40c14fb5b577972c28da2, type: 3}
  MatTableau: {fileID: 2100000, guid: 593ca7ee5aac028458e2897b24dea515, type: 2}
  MatCadre: {fileID: 2100000, guid: 1dc6f2864207c694d82458c2d18dce2e, type: 2}
  LargeurTableau: 0.55
  HauteurTableau: 0.46
  ProfondeurTableau: 0.1
  OriginalValue: 1
  TransformedValue: 16.454546
  MouvementCoef: 1.0454545
  PeriodCoef: 1.1818181
  StyleCoef: 2
  AmbianceCoef: 2
  ElementsCoef: 2
  CoefGlobal: 1.6454545
