%YAML 1.1
%TAG !u! tag:unity3d.com,2011:
--- !u!114 &11400000
MonoBehaviour:
  m_ObjectHideFlags: 0
  m_CorrespondingSourceObject: {fileID: 0}
  m_PrefabInstance: {fileID: 0}
  m_PrefabAsset: {fileID: 0}
  m_GameObject: {fileID: 0}
  m_Enabled: 1
  m_EditorHideFlags: 0
  m_Script: {fileID: 11500000, guid: b00f367ee721cba49ac2f683138acd7d, type: 3}
  m_Name: So_CU_le_canigou
  m_EditorClassIdentifier: 
  titre: Le canigou
  auteur: Juan Gris
  Annee: 1921
  description: 
  technique: "Peinture \xE0 l'huile"
  lieuConservation: Galerie d'art Albright-Knox (New-York, USA)
  idSalle: 1
  courantArtTableau: 2
  periode: 2
  ambiance: 0
  elements: 22
  style: 2
  Cadre: {fileID: -927199367670048503, guid: eac59f5194c122b4cb10818188bcf028, type: 3}
  imageOeuvre: {fileID: 21300000, guid: 273431891b66c5a4ba5687bec488d33a, type: 3}
  MatTableau: {fileID: 2100000, guid: 5331741d7f543c84ea1658dd52d58aa6, type: 2}
  MatCadre: {fileID: 2100000, guid: 1dc6f2864207c694d82458c2d18dce2e, type: 2}
  LargeurTableau: 1.23
  HauteurTableau: 0.88
  ProfondeurTableau: 0.1
  OriginalValue: 1
  TransformedValue: 9
  MouvementCoef: 1
  PeriodCoef: 2
  StyleCoef: 0
  AmbianceCoef: 2
  ElementsCoef: 0
  CoefGlobal: 0.9
