%YAML 1.1
%TAG !u! tag:unity3d.com,2011:
--- !u!114 &11400000
MonoBehaviour:
  m_ObjectHideFlags: 0
  m_CorrespondingSourceObject: {fileID: 0}
  m_PrefabInstance: {fileID: 0}
  m_PrefabAsset: {fileID: 0}
  m_GameObject: {fileID: 0}
  m_Enabled: 1
  m_EditorHideFlags: 0
  m_Script: {fileID: 11500000, guid: b00f367ee721cba49ac2f683138acd7d, type: 3}
  m_Name: So_CU_le_petit_port
  m_EditorClassIdentifier: 
  titre: Le petit port
  auteur: "Andr\xE9 Lhote"
  Annee: 1929
  description: 
  technique: "Huile sur papier maroufl\xE9 sur toile"
  lieuConservation: "Collection priv\xE9e"
  idSalle: 1
  courantArtTableau: 2
  periode: 2
  ambiance: 0
  elements: 6
  style: 1
  Cadre: {fileID: -927199367670048503, guid: eac59f5194c122b4cb10818188bcf028, type: 3}
  imageOeuvre: {fileID: 21300000, guid: ee0859107ad0bd346a0c25aae9ae132b, type: 3}
  MatTableau: {fileID: 2100000, guid: fb7be28f7e91f67439ced10f2d233fb6, type: 2}
  MatCadre: {fileID: 2100000, guid: 1dc6f2864207c694d82458c2d18dce2e, type: 2}
  LargeurTableau: 0.355
  HauteurTableau: 0.27
  ProfondeurTableau: 0.1
  OriginalValue: 1
  TransformedValue: 12.5
  MouvementCoef: 0.75
  PeriodCoef: 1.75
  StyleCoef: 1.5
  AmbianceCoef: 0
  ElementsCoef: 1
  CoefGlobal: 1.25
