%YAML 1.1
%TAG !u! tag:unity3d.com,2011:
--- !u!114 &11400000
MonoBehaviour:
  m_ObjectHideFlags: 0
  m_CorrespondingSourceObject: {fileID: 0}
  m_PrefabInstance: {fileID: 0}
  m_PrefabAsset: {fileID: 0}
  m_GameObject: {fileID: 0}
  m_Enabled: 1
  m_EditorHideFlags: 0
  m_Script: {fileID: 11500000, guid: b00f367ee721cba49ac2f683138acd7d, type: 3}
  m_Name: So_CU_portrait_picasso_chapeau_noir
  m_EditorClassIdentifier: 
  titre: Portrait de Picasso au chapeau noir
  auteur: Dora Maar
  Annee: 1939
  description: 
  technique: Huile sur toile
  lieuConservation: Inconnu
  idSalle: 0
  courantArtTableau: 2
  periode: 2
  ambiance: 0
  elements: 18
  style: 0
  Cadre: {fileID: -927199367670048503, guid: eac59f5194c122b4cb10818188bcf028, type: 3}
  imageOeuvre: {fileID: 21300000, guid: d56c3e2dfd3b23e42aecd70ff606fe30, type: 3}
  MatTableau: {fileID: 2100000, guid: 1ee5453e4212f6b4eb2441e6dafa3520, type: 2}
  MatCadre: {fileID: 2100000, guid: 1dc6f2864207c694d82458c2d18dce2e, type: 2}
  LargeurTableau: 0.5
  HauteurTableau: 0.61
  ProfondeurTableau: 0.1
  OriginalValue: 1
  TransformedValue: 0
  MouvementCoef: 1
  PeriodCoef: 1
  StyleCoef: 1
  AmbianceCoef: 1
  ElementsCoef: 1
  CoefGlobal: 1
