%YAML 1.1
%TAG !u! tag:unity3d.com,2011:
--- !u!1 &6429990886495262340
GameObject:
  m_ObjectHideFlags: 0
  m_CorrespondingSourceObject: {fileID: 0}
  m_PrefabInstance: {fileID: 0}
  m_PrefabAsset: {fileID: 0}
  serializedVersion: 6
  m_Component:
  - component: {fileID: 2405315539761708192}
  m_Layer: 0
  m_Name: PrefabWallPlinthe1Preview 1
  m_TagString: Untagged
  m_Icon: {fileID: 0}
  m_NavMeshLayer: 0
  m_StaticEditorFlags: 0
  m_IsActive: 1
--- !u!4 &2405315539761708192
Transform:
  m_ObjectHideFlags: 0
  m_CorrespondingSourceObject: {fileID: 0}
  m_PrefabInstance: {fileID: 0}
  m_PrefabAsset: {fileID: 0}
  m_GameObject: {fileID: 6429990886495262340}
  m_LocalRotation: {x: 0, y: 0, z: 0, w: 1}
  m_LocalPosition: {x: -8.13, y: -0.18, z: 6.98}
  m_LocalScale: {x: 1, y: 1, z: 1}
  m_Children:
  - {fileID: 7009925008362972648}
  - {fileID: 8814568701413569260}
  m_Father: {fileID: 0}
  m_RootOrder: 0
  m_LocalEulerAnglesHint: {x: 0, y: 0, z: 0}
--- !u!1001 &7699833170859612648
PrefabInstance:
  m_ObjectHideFlags: 0
  serializedVersion: 2
  m_Modification:
    m_TransformParent: {fileID: 2405315539761708192}
    m_Modifications:
    - target: {fileID: 834024506220706816, guid: 2410e02a3e0991549a84210e5154dc3d,
        type: 3}
      propertyPath: m_LocalPosition.x
      value: -0
      objectReference: {fileID: 0}
    - target: {fileID: 834024506220706816, guid: 2410e02a3e0991549a84210e5154dc3d,
        type: 3}
      propertyPath: m_LocalPosition.y
      value: 0
      objectReference: {fileID: 0}
    - target: {fileID: 834024506220706816, guid: 2410e02a3e0991549a84210e5154dc3d,
        type: 3}
      propertyPath: m_LocalPosition.z
      value: 0
      objectReference: {fileID: 0}
    - target: {fileID: 834024506220706816, guid: 2410e02a3e0991549a84210e5154dc3d,
        type: 3}
      propertyPath: m_LocalRotation.x
      value: 0
      objectReference: {fileID: 0}
    - target: {fileID: 834024506220706816, guid: 2410e02a3e0991549a84210e5154dc3d,
        type: 3}
      propertyPath: m_LocalRotation.y
      value: -0
      objectReference: {fileID: 0}
    - target: {fileID: 834024506220706816, guid: 2410e02a3e0991549a84210e5154dc3d,
        type: 3}
      propertyPath: m_LocalRotation.z
      value: -0
      objectReference: {fileID: 0}
    - target: {fileID: 834024506220706816, guid: 2410e02a3e0991549a84210e5154dc3d,
        type: 3}
      propertyPath: m_LocalRotation.w
      value: 1
      objectReference: {fileID: 0}
    - target: {fileID: 834024506220706816, guid: 2410e02a3e0991549a84210e5154dc3d,
        type: 3}
      propertyPath: m_RootOrder
      value: 0
      objectReference: {fileID: 0}
    - target: {fileID: 834024506220706816, guid: 2410e02a3e0991549a84210e5154dc3d,
        type: 3}
      propertyPath: m_LocalEulerAnglesHint.x
      value: 0
      objectReference: {fileID: 0}
    - target: {fileID: 834024506220706816, guid: 2410e02a3e0991549a84210e5154dc3d,
        type: 3}
      propertyPath: m_LocalEulerAnglesHint.y
      value: 0
      objectReference: {fileID: 0}
    - target: {fileID: 834024506220706816, guid: 2410e02a3e0991549a84210e5154dc3d,
        type: 3}
      propertyPath: m_LocalEulerAnglesHint.z
      value: 0
      objectReference: {fileID: 0}
    - target: {fileID: 2734954955936217807, guid: 2410e02a3e0991549a84210e5154dc3d,
        type: 3}
      propertyPath: m_Materials.Array.data[0]
      value: 
      objectReference: {fileID: 2100000, guid: 51f543c0f09c69b4782c9f3ea3e2b078, type: 2}
    - target: {fileID: 4451901717874183699, guid: 2410e02a3e0991549a84210e5154dc3d,
        type: 3}
      propertyPath: m_Name
      value: Mur_004
      objectReference: {fileID: 0}
    m_RemovedComponents: []
  m_SourcePrefab: {fileID: 100100000, guid: 2410e02a3e0991549a84210e5154dc3d, type: 3}
--- !u!4 &7009925008362972648 stripped
Transform:
  m_CorrespondingSourceObject: {fileID: 834024506220706816, guid: 2410e02a3e0991549a84210e5154dc3d,
    type: 3}
  m_PrefabInstance: {fileID: 7699833170859612648}
  m_PrefabAsset: {fileID: 0}
--- !u!1001 &8196744109261147884
PrefabInstance:
  m_ObjectHideFlags: 0
  serializedVersion: 2
  m_Modification:
    m_TransformParent: {fileID: 2405315539761708192}
    m_Modifications:
    - target: {fileID: 834024506220706816, guid: 2410e02a3e0991549a84210e5154dc3d,
        type: 3}
      propertyPath: m_LocalPosition.x
      value: -0
      objectReference: {fileID: 0}
    - target: {fileID: 834024506220706816, guid: 2410e02a3e0991549a84210e5154dc3d,
        type: 3}
      propertyPath: m_LocalPosition.y
      value: 0
      objectReference: {fileID: 0}
    - target: {fileID: 834024506220706816, guid: 2410e02a3e0991549a84210e5154dc3d,
        type: 3}
      propertyPath: m_LocalPosition.z
      value: 0
      objectReference: {fileID: 0}
    - target: {fileID: 834024506220706816, guid: 2410e02a3e0991549a84210e5154dc3d,
        type: 3}
      propertyPath: m_LocalRotation.x
      value: 0
      objectReference: {fileID: 0}
    - target: {fileID: 834024506220706816, guid: 2410e02a3e0991549a84210e5154dc3d,
        type: 3}
      propertyPath: m_LocalRotation.y
      value: 1
      objectReference: {fileID: 0}
    - target: {fileID: 834024506220706816, guid: 2410e02a3e0991549a84210e5154dc3d,
        type: 3}
      propertyPath: m_LocalRotation.z
      value: 0
      objectReference: {fileID: 0}
    - target: {fileID: 834024506220706816, guid: 2410e02a3e0991549a84210e5154dc3d,
        type: 3}
      propertyPath: m_LocalRotation.w
      value: 0
      objectReference: {fileID: 0}
    - target: {fileID: 834024506220706816, guid: 2410e02a3e0991549a84210e5154dc3d,
        type: 3}
      propertyPath: m_RootOrder
      value: 1
      objectReference: {fileID: 0}
    - target: {fileID: 834024506220706816, guid: 2410e02a3e0991549a84210e5154dc3d,
        type: 3}
      propertyPath: m_LocalEulerAnglesHint.x
      value: 0
      objectReference: {fileID: 0}
    - target: {fileID: 834024506220706816, guid: 2410e02a3e0991549a84210e5154dc3d,
        type: 3}
      propertyPath: m_LocalEulerAnglesHint.y
      value: 180
      objectReference: {fileID: 0}
    - target: {fileID: 834024506220706816, guid: 2410e02a3e0991549a84210e5154dc3d,
        type: 3}
      propertyPath: m_LocalEulerAnglesHint.z
      value: 0
      objectReference: {fileID: 0}
    - target: {fileID: 2734954955936217807, guid: 2410e02a3e0991549a84210e5154dc3d,
        type: 3}
      propertyPath: m_Materials.Array.data[0]
      value: 
      objectReference: {fileID: 2100000, guid: 51f543c0f09c69b4782c9f3ea3e2b078, type: 2}
    - target: {fileID: 4451901717874183699, guid: 2410e02a3e0991549a84210e5154dc3d,
        type: 3}
      propertyPath: m_Name
      value: Mur_004 (1)
      objectReference: {fileID: 0}
    m_RemovedComponents: []
  m_SourcePrefab: {fileID: 100100000, guid: 2410e02a3e0991549a84210e5154dc3d, type: 3}
--- !u!4 &8814568701413569260 stripped
Transform:
  m_CorrespondingSourceObject: {fileID: 834024506220706816, guid: 2410e02a3e0991549a84210e5154dc3d,
    type: 3}
  m_PrefabInstance: {fileID: 8196744109261147884}
  m_PrefabAsset: {fileID: 0}
