%YAML 1.1
%TAG !u! tag:unity3d.com,2011:
--- !u!114 &11400000
MonoBehaviour:
  m_ObjectHideFlags: 0
  m_CorrespondingSourceObject: {fileID: 0}
  m_PrefabInstance: {fileID: 0}
  m_PrefabAsset: {fileID: 0}
  m_GameObject: {fileID: 0}
  m_Enabled: 1
  m_EditorHideFlags: 0
  m_Script: {fileID: 11500000, guid: 41358735d93544749af23d081619911b, type: 3}
  m_Name: "Qu\xEAte 14"
  m_EditorClassIdentifier: 
  description: "Il faut se d\xE9brouiller seul"
  objectif_text1: 
  objectif_text2: 
  objectif_text3: 
  objectif_textReput: Atteins 3700 de Reputation
  objectif_textSameCourant: 
  objectif_textcomparaison: 
  objectif_textAggrandissement: 
  reputationBool: 1
  Reputation: 0
  reputationGoal: 30000
  CourantRequired: 0
  NbTabRequired: 0
  controlesBool: 0
  deplacementCam: 0
  zoom: 0
  pivoterCam: 0
  tableauxBool: 0
  ouvertureCollection: 0
  selectionTab: 0
  poseTab: 0
  combinaisonBool: 0
  clickTab: 0
  sameCourantTabsBool: 0
  sameCourantTabs: 0
  compareDeuxTabBool: 0
  compareDeuxTab: 0
  deblocageSalleBool: 0
  deblocageSalle: 0
  Tableau: 1
  UnlockSalle: 0
  numberToPick: 2
  paintings:
  - {fileID: 11400000, guid: 2f9fa0bf071abf447848f4d837e98cc0, type: 2}
  - {fileID: 11400000, guid: abb88922ca1650b48a9a166722ec6b5d, type: 2}
  - {fileID: 11400000, guid: dad5193744550104a9159eeee1e04347, type: 2}
  - {fileID: 11400000, guid: aa9139a271e289b49869b15e81cc76ec, type: 2}
  nbBON: 0
