%YAML 1.1
%TAG !u! tag:unity3d.com,2011:
--- !u!114 &11400000
MonoBehaviour:
  m_ObjectHideFlags: 0
  m_CorrespondingSourceObject: {fileID: 0}
  m_PrefabInstance: {fileID: 0}
  m_PrefabAsset: {fileID: 0}
  m_GameObject: {fileID: 0}
  m_Enabled: 1
  m_EditorHideFlags: 0
  m_Script: {fileID: 11500000, guid: 41358735d93544749af23d081619911b, type: 3}
  m_Name: "Qu\xEAte 12"
  m_EditorClassIdentifier: 
  description: Decouverte du systeme de comparaison.
  objectif_text1: 
  objectif_text2: 
  objectif_text3: 
  objectif_textReput: Atteins 400 de Reputation
  objectif_textSameCourant: 
  objectif_textcomparaison: Compare deux tableaux
  objectif_textAggrandissement: 
  reputationBool: 0
  Reputation: 0
  reputationGoal: 12000
  CourantRequired: 0
  NbTabRequired: 0
  controlesBool: 0
  deplacementCam: 0
  zoom: 0
  pivoterCam: 0
  tableauxBool: 0
  ouvertureCollection: 0
  selectionTab: 0
  poseTab: 0
  combinaisonBool: 0
  clickTab: 0
  sameCourantTabsBool: 0
  sameCourantTabs: 0
  compareDeuxTabBool: 0
  compareDeuxTab: 0
  deblocageSalleBool: 0
  deblocageSalle: 0
  Tableau: 0
  UnlockSalle: 1
  numberToPick: 1
  paintings: []
  nbBON: 1
