%YAML 1.1
%TAG !u! tag:unity3d.com,2011:
--- !u!114 &11400000
MonoBehaviour:
  m_ObjectHideFlags: 0
  m_CorrespondingSourceObject: {fileID: 0}
  m_PrefabInstance: {fileID: 0}
  m_PrefabAsset: {fileID: 0}
  m_GameObject: {fileID: 0}
  m_Enabled: 1
  m_EditorHideFlags: 0
  m_Script: {fileID: 11500000, guid: 41358735d93544749af23d081619911b, type: 3}
  m_Name: "Qu\xEAte 1"
  m_EditorClassIdentifier: 
  description: "Utiliser les diff\xE9rents controles de d\xE9placements  "
  objectif_text1: "Utiliser ZQSD / Clic Molette Souris pour d\xE9placer la cam\xE9ra"
  objectif_text2: Utiliser la molette pour Zoomer
  objectif_text3: "Maintenir AE / Clic Droit pour pivoter la cam\xE9ra"
  objectif_textReput: 
  objectif_textSameCourant: 
  objectif_textcomparaison: 
  objectif_textAggrandissement: 
  reputationBool: 0
  Reputation: 0
  reputationGoal: 0
  CourantRequired: 0
  NbTabRequired: 0
  controlesBool: 1
  deplacementCam: 0
  zoom: 0
  pivoterCam: 0
  tableauxBool: 0
  ouvertureCollection: 0
  selectionTab: 0
  poseTab: 0
  combinaisonBool: 0
  clickTab: 0
  sameCourantTabsBool: 0
  sameCourantTabs: 0
  compareDeuxTabBool: 0
  compareDeuxTab: 0
  deblocageSalleBool: 0
  deblocageSalle: 0
  Tableau: 1
  UnlockSalle: 0
  numberToPick: 3
  paintings:
  - {fileID: 11400000, guid: 6c494b4e1fef32943b00c84227c5218f, type: 2}
  - {fileID: 11400000, guid: 68f8ca620e83a2248919fcfd1afc5182, type: 2}
  - {fileID: 11400000, guid: bc976de6e92464c48bc60773e3d1030b, type: 2}
  nbBON: 0
