%YAML 1.1
%TAG !u! tag:unity3d.com,2011:
--- !u!114 &11400000
MonoBehaviour:
  m_ObjectHideFlags: 0
  m_CorrespondingSourceObject: {fileID: 0}
  m_PrefabInstance: {fileID: 0}
  m_PrefabAsset: {fileID: 0}
  m_GameObject: {fileID: 0}
  m_Enabled: 1
  m_EditorHideFlags: 0
  m_Script: {fileID: 11500000, guid: 41358735d93544749af23d081619911b, type: 3}
  m_Name: "Qu\xEAte 13"
  m_EditorClassIdentifier: 
  description: "Il faut se d\xE9brouiller seul"
  objectif_text1: 
  objectif_text2: 
  objectif_text3: 
  objectif_textReput: Atteins 3000 de Reputation
  objectif_textSameCourant: 
  objectif_textcomparaison: 
  objectif_textAggrandissement: 
  reputationBool: 1
  Reputation: 0
  reputationGoal: 20000
  CourantRequired: 0
  NbTabRequired: 0
  controlesBool: 0
  deplacementCam: 0
  zoom: 0
  pivoterCam: 0
  tableauxBool: 0
  ouvertureCollection: 0
  selectionTab: 0
  poseTab: 0
  combinaisonBool: 0
  clickTab: 0
  sameCourantTabsBool: 0
  sameCourantTabs: 0
  compareDeuxTabBool: 0
  compareDeuxTab: 0
  deblocageSalleBool: 0
  deblocageSalle: 0
  Tableau: 1
  UnlockSalle: 0
  numberToPick: 1
  paintings:
  - {fileID: 11400000, guid: 89117bc514fe0a8489271fd7ff7ca187, type: 2}
  - {fileID: 11400000, guid: fc0717e661d2c4446a242ec6b3b886d3, type: 2}
  - {fileID: 11400000, guid: 99a29502435e9d4459aa651f60f113f7, type: 2}
  - {fileID: 11400000, guid: 5c92ee64a171d014db2a7f943e2fdc25, type: 2}
  nbBON: 0
